<svg xmlns="http://www.w3.org/2000/svg" xmlns:xlink="http://www.w3.org/1999/xlink" viewBox="0 0 24.692 24.692">
  <defs>
    <style>
      .cls-1 {
        fill: none;
      }

      .cls-2 {
        clip-path: url(#clip-path);
      }

      .cls-3 {
        fill: #da2128;
      }
    </style>
    <clipPath id="clip-path">
      <rect class="cls-1" width="24.692" height="24.692"/>
    </clipPath>
  </defs>
  <g id="Repeat_Grid_3" data-name="Repeat Grid 3" class="cls-2">
    <g id="Group_58" data-name="Group 58">
      <path id="Path_96" data-name="Path 96" class="cls-3" d="M21.8,1.929H20.641V0H18.712V1.929H5.98V0H4.051V1.929H2.894A2.9,2.9,0,0,0,0,4.823V21.8a2.9,2.9,0,0,0,2.894,2.894H21.8A2.9,2.9,0,0,0,24.692,21.8V4.823A2.9,2.9,0,0,0,21.8,1.929ZM2.894,3.858H4.051V5.787H5.98V3.858H18.712V5.787h1.929V3.858H21.8a.965.965,0,0,1,.965.965V7.138H1.929V4.823a.965.965,0,0,1,.965-.965Zm18.9,18.9H2.894a.965.965,0,0,1-.965-.965V9.067H22.763V21.8A.965.965,0,0,1,21.8,22.763Z"/>
      <rect id="Rectangle_57" data-name="Rectangle 57" class="cls-3" width="1.929" height="1.929" transform="translate(3.665 11.092)"/>
      <rect id="Rectangle_58" data-name="Rectangle 58" class="cls-3" width="1.929" height="1.929" transform="translate(7.523 11.092)"/>
      <rect id="Rectangle_59" data-name="Rectangle 59" class="cls-3" width="1.929" height="1.929" transform="translate(11.381 11.092)"/>
      <rect id="Rectangle_60" data-name="Rectangle 60" class="cls-3" width="1.929" height="1.929" transform="translate(15.24 11.092)"/>
      <rect id="Rectangle_61" data-name="Rectangle 61" class="cls-3" width="1.929" height="1.929" transform="translate(19.098 11.092)"/>
      <rect id="Rectangle_62" data-name="Rectangle 62" class="cls-3" width="1.929" height="1.929" transform="translate(3.665 14.95)"/>
      <rect id="Rectangle_63" data-name="Rectangle 63" class="cls-3" width="1.929" height="1.929" transform="translate(7.523 14.95)"/>
      <rect id="Rectangle_64" data-name="Rectangle 64" class="cls-3" width="1.929" height="1.929" transform="translate(11.381 14.95)"/>
      <rect id="Rectangle_65" data-name="Rectangle 65" class="cls-3" width="1.929" height="1.929" transform="translate(15.24 14.95)"/>
      <rect id="Rectangle_66" data-name="Rectangle 66" class="cls-3" width="1.929" height="1.929" transform="translate(3.665 18.808)"/>
      <rect id="Rectangle_67" data-name="Rectangle 67" class="cls-3" width="1.929" height="1.929" transform="translate(7.523 18.808)"/>
      <rect id="Rectangle_68" data-name="Rectangle 68" class="cls-3" width="1.929" height="1.929" transform="translate(11.381 18.808)"/>
      <rect id="Rectangle_69" data-name="Rectangle 69" class="cls-3" width="1.929" height="1.929" transform="translate(15.24 18.808)"/>
      <rect id="Rectangle_70" data-name="Rectangle 70" class="cls-3" width="1.929" height="1.929" transform="translate(19.098 14.95)"/>
    </g>
  </g>
</svg>
