<svg xmlns="http://www.w3.org/2000/svg" viewBox="0 0 68.304 71.182">
  <defs>
    <style>
      .cls-1 {
        fill: #2e2e2e;
      }
    </style>
  </defs>
  <path id="Path_94" data-name="Path 94" class="cls-1" d="M155.265,168.2v2.08a3.3,3.3,0,0,1-2.8,3.273l-.513,1.889a2.352,2.352,0,0,1-2.27,1.743H144.6a2.352,2.352,0,0,1-2.27-1.743l-.5-1.889a3.313,3.313,0,0,1-2.812-3.3v-2.072a2,2,0,0,1,2.014-2.014h12.229a2.014,2.014,0,0,1,2.014,2.014Zm9.417-28.03a17.448,17.448,0,0,1-4.921,12.17,16.076,16.076,0,0,0-4.306,8.728,2.9,2.9,0,0,1-2.87,2.446H141.7a2.872,2.872,0,0,1-2.856-2.431,16.258,16.258,0,0,0-4.335-8.765,17.532,17.532,0,1,1,30.168-12.155Zm-15.56-10.618a1.979,1.979,0,0,0-1.977-1.977A12.666,12.666,0,0,0,134.5,140.232a1.977,1.977,0,0,0,3.954,0,8.71,8.71,0,0,1,8.7-8.7,1.97,1.97,0,0,0,1.977-1.977Zm-1.977-12.668a1.979,1.979,0,0,0,1.977-1.977v-6.927a1.977,1.977,0,1,0-3.954,0V114.9a1.977,1.977,0,0,0,1.977,1.977Zm-23.263,23.271a1.977,1.977,0,0,0-1.977-1.977h-6.927a1.977,1.977,0,0,0,0,3.954H121.9a1.97,1.97,0,0,0,1.977-1.977Zm55.446-1.977H172.4a1.977,1.977,0,0,0,0,3.954h6.927a1.977,1.977,0,0,0,0-3.954Zm-51.418,18.438L123,161.519a1.973,1.973,0,0,0,2.783,2.8l4.906-4.906a1.973,1.973,0,1,0-2.783-2.8ZM165,124.277a1.972,1.972,0,0,0,1.391-.571L171.3,118.8a1.979,1.979,0,1,0-2.8-2.8l-4.906,4.906a1.972,1.972,0,0,0,0,2.8A2.014,2.014,0,0,0,165,124.277Zm-37.1-.586a1.973,1.973,0,1,0,2.783-2.8l-4.906-4.906a1.979,1.979,0,0,0-2.8,2.8ZM166.4,156.613a1.979,1.979,0,0,0-2.8,2.8l4.906,4.906a1.973,1.973,0,1,0,2.783-2.8Zm0,0" transform="translate(-113 -106)"/>
</svg>
