<?xml version="1.0" encoding="utf-8"?>
<!-- Generator: Adobe Illustrator 22.1.0, SVG Export Plug-In . SVG Version: 6.00 Build 0)  -->
<svg version="1.1" id="Layer_1" xmlns="http://www.w3.org/2000/svg" xmlns:xlink="http://www.w3.org/1999/xlink" x="0px" y="0px"
	 width="1366px" height="300px" viewBox="0 0 1366 300" style="enable-background:new 0 0 1366 300;" xml:space="preserve">
<style type="text/css">
	.st0{fill:#FFD400;}
	.st1{fill:#005B9E;}
	.st2{fill:#B61E82;}
	.st3{fill:#009066;}
	.st4{fill:#F37021;}
	.st5{fill:#DA2128;}
</style>
<g>
	<g>
		<g>
			<path class="st0" d="M152.6,238.8c-55.7-5.3-104.9-32-123.1-62.8c0.9,5.8,7.5,18.4,10.5,26.7c2.2,6.1,5.4,11,6.9,15.5
				c23,16.3,49.5,24.8,85.8,28.3c37.5,3.6,70.4-1,96.4-13.4C206.3,238.8,181.2,241.5,152.6,238.8z"/>
			<path class="st0" d="M109.2,126.7C90.1,105.9,72.9,84.8,58,64.3c-2,2.6-4.3,5.7-6.6,9.2c-3.3,4.8-5.9,9.3-7.9,13
				c14.7,16.1,30.9,32.3,48.5,48.2c50.1,45.4,99,74.8,138.1,96C194.8,204.8,152.1,173.3,109.2,126.7z"/>
			<path class="st0" d="M188.4,89.9c-14.3-28.5-25.5-47.4-42-69.5c-2.1,0.2-5.7,2-12.1,3c-4.7,0.8-9.6,0.3-13.4,1.8
				c24.1,25.3,43.5,51.7,64.8,89.7c24.3,43.2,36.5,77.7,46.7,113.8C228.1,187.2,215.4,143.7,188.4,89.9z"/>
		</g>
		<path class="st1" d="M165,282.8c-69.6,0-126-54.6-126-121.9C39,93.7,95,41.1,164.7,41.1c68.2,0,124.2,50.5,126.3,116
			c0.1-1.7,0.1-3.4,0.1-5.1c0-73.4-59.9-133-133.8-133C83.4,19,23.5,78.5,23.5,152c0,73.4,59.9,132.9,133.8,132.9
			c14.4,0,28.3-2.3,41.3-6.5C187.9,281.3,176.6,282.8,165,282.8z"/>
		<path class="st2" d="M92.9,95.7c47.7-48.6,121.9-52.3,165.7-8.2c26.8,26.9,37.4,67.6,28.3,102.4c12.4-41.5,4.8-88.4-26.7-120.1
			c-46.1-46.4-123.9-43.5-171.6,5.2C57.2,107,46,151.3,55.1,191.1C53.8,157.7,66.5,122.6,92.9,95.7z"/>
		<path class="st3" d="M284.5,164c-0.4-29.3-11.6-56.3-32.1-70.5c-39.8-27.4-101.6-6-140.1,50.3c-19.9,29.1-29.3,61.3-28.1,89.4
			c-8.8-32.9-1.6-73.8,22.7-109.1C145.3,67.8,212.1,46.7,256,76.9c26,17.9,38.6,50,36.1,84.7c0,0-0.8,10-1.7,14.4
			c-0.9,4.1-3.2,13.1-4.1,15.8C285.4,194.4,284.5,164,284.5,164z"/>
		<path class="st4" d="M152.3,147c-39.3,41.7-48.2,97.1-19.9,123.8c1.3,1.2,2.6,2.3,3.9,3.3c-24.9-24.9-17.4-72.7,17.1-109.9
			c31.7-34.3,85.6-49.2,111.7-24.6c23,21.7,19.9,63.4-5.3,98.6c35-40.9,41.9-92.7,14.8-118.2C246.4,93.2,191.6,105.3,152.3,147z"/>
		<path class="st5" d="M189,189.4c-26.4,23-35.3,56.1-19.7,74c12.2,14,35.7,14.5,58,3c-18.8,8.6-38.2,7.6-48.5-4.3
			c-13.8-15.9-6.2-45,16.8-65c23.1-20.1,53-23.5,66.8-7.6c10.3,11.9,8.7,31.2-2.5,48.6c14.5-20.5,17.3-43.9,5.1-57.9
			C249.4,162.3,215.4,166.5,189,189.4z"/>
	</g>
	<g>
		<path class="st5" d="M450.6,176.1c-9.9,6.2-18.3,8.1-30.9,8.1h-16.1l-9.6,45.1h-19.9l25.4-118.5h30.9c14.6,0,23.3,2.2,29.2,6.2
			c7,4.8,10.8,12.5,10.8,21.1C470.3,155.7,462.3,168.8,450.6,176.1z M430.7,126.9h-14.9l-8.7,41.2h15.4c9.4,0,14.6-2.1,18.3-6
			c5.1-5.3,8.2-12.9,8.2-20.1C449.1,132.2,443.7,126.9,430.7,126.9z"/>
		<path class="st5" d="M519,167.8c-1.5-0.9-3-1.2-5.3-1.2c-5.3,0-11.2,4.1-17.9,13.5l-10.4,49.2h-16.5l10.9-51.2
			c2.3-10.4,2.1-16.2,0.6-21.5l15.4-6.4c1.7,3.9,2.3,9.7,1.2,15c7-8.8,15.4-14.4,22.9-14.4c2.7,0,4.1,0.3,6.4,1.2L519,167.8z"/>
		<path class="st5" d="M545.8,231.1c-16.9,0-26.6-9.8-26.6-27.4c0-29.5,18-52.8,43.4-52.8c17.6,0,27.1,10.1,27.1,26.9
			C589.7,205.8,574,231.1,545.8,231.1z M560,163.6c-15.1,0-23,24.2-23,41.6c0,9.2,4.4,13.3,11.8,13.3c14.8,0,22.9-22.7,22.9-41.3
			C571.7,166.9,566.8,163.6,560,163.6z"/>
		<path class="st5" d="M686.2,131c-5.3-4.8-11.7-6.7-19.2-6.7c-10.5,0-20.1,5.7-27.1,14.7c-9.8,12.5-15.4,36.4-15.4,50.8
			c0,17,8.6,25.9,24,25.9c7.9,0,14.6-2.6,23.1-8.1l7,13c-11,7.2-22.6,10.6-35.5,10.6c-25.2,0-40.1-15.9-40.1-42.2
			c0-19,7.2-41.8,19.4-56.9c12.2-15.3,30-23.5,47.5-23.5c11.5,0,21.8,3.6,27.6,9.4L686.2,131z"/>
		<path class="st5" d="M739.7,167.8c-1.5-0.9-3-1.2-5.3-1.2c-5.3,0-11.2,4.1-17.9,13.5l-10.4,49.2h-16.5l10.9-51.2
			c2.3-10.4,2.1-16.2,0.6-21.5l15.4-6.4c1.7,3.9,2.3,9.7,1.2,15c7-8.8,15.4-14.4,22.9-14.4c2.7,0,4.1,0.3,6.4,1.2L739.7,167.8z"/>
		<path class="st5" d="M800.5,187.2c-6.4,6.2-16.8,9.7-32.5,9.7c-4.2,0-7.9-0.6-9.2-0.6c-0.3,1.5-0.9,5.6-0.9,8
			c0,9.5,5.6,14.1,13.9,14.1c8,0,14.5-2.7,21.6-8.3l5.1,10.3c-9.2,7.4-18.3,10.9-31.2,10.9c-16.3,0-27.2-9.8-27.2-28
			c0-15.3,6.7-31.8,17.1-41.9c7.6-7.3,16-10.4,25.9-10.4c14.8,0,24.2,6.8,24.2,20.4C807.3,177.5,804.9,183,800.5,187.2z M781,163.3
			c-8.6,0-16.2,6.8-19.5,21.2c0.9,0,4.1,0.5,6.7,0.5c9.2,0,15.6-1.4,19.2-5c2-2,3.2-4.4,3.2-7.6C790.5,167.2,788,163.3,781,163.3z"
			/>
		<path class="st5" d="M878.7,202.6c-3.5,16.2-2.9,21-0.8,24.7l-14.2,3.3c-2-2.4-3.2-6.2-2.9-11c-5.9,7.3-13.8,11.2-22.5,11.2
			c-15.3,0-22.5-9.1-22.5-26.3c0-15.3,6.1-31.6,16.8-42.2c7.3-7.1,16.8-10.7,25.6-10.7c6.8,0,12.1,1.1,14.7,2.4
			c0-0.8,1.4-7.7,2-10.3l5.4-25.7l15.9,2.7L878.7,202.6z M857.6,165c-4.8,0-10.3,2.4-13.9,7c-6.2,7.6-10.4,22.4-10.4,32.8
			c0,8.3,3,12.7,9.2,12.7c6.4,0,14.7-5.6,19.4-13.6l7.7-35.9C866.3,165.9,863.2,165,857.6,165z"/>
		<path class="st5" d="M913.1,229.3h-16.9l16-75.7l17.4-2.6L913.1,229.3z M925.6,141.7c-6.1,0-11-5-11-11c0-6.2,5-11.2,11.2-11.2
			c6.1,0,10.9,5,10.9,11C936.7,136.7,931.8,141.7,925.6,141.7z"/>
		<path class="st5" d="M979.5,164.5h-14.7l-8.6,41.2c-0.6,2.9-0.9,5.4-0.9,7.4c0,4.8,2.3,6.4,7.1,6.4c2.4,0,5.3-0.5,7.7-1.5v10.3
			c-5.3,2.1-10.6,3.2-15.9,3.2c-10.3,0-16-5.1-16-12.9c0-2.7,0.3-6.7,1.1-10.4l9.2-43.6h-8.6l2.4-11.8h8.6c1.5-7,3-12.9,5-18.6
			l17.7-4.1c-2.1,6.5-4.7,15.4-6.2,22.7h18.3L979.5,164.5z"/>
		<path class="st5" d="M1088.5,166.5c12.5,2.4,18.9,12,18.9,23.8c0,8.7-4.3,19.5-12.9,27.6c-8.9,8.2-18.3,11.3-38.1,11.3h-37.7
			l25.4-118.5h37c22.5,0,33.3,9.8,33.3,25.7C1114.4,149.4,1106.3,161.6,1088.5,166.5z M1067,176h-17.5l-7.9,37.2h18.9
			c7,0,12.2-1.9,16.1-4.6c5.1-3.6,9.1-11,9.1-18.3C1085.7,180.8,1081.1,176,1067,176z M1076.1,127.4h-16.5l-6.7,32.2h17.1
			c7.4,0,11.8-1.4,15.3-4.1c4.3-3.4,7.4-8.6,7.4-15.1C1092.8,131.9,1088.6,127.4,1076.1,127.4z"/>
		<path class="st5" d="M1184.1,174.2l-6.2,30.3c-2,9.2-1.1,13.2,2.7,17.3l-13.6,10.1c-4.1-3.3-5.7-7.6-5.7-12.6
			c-5.4,7.4-13.2,11.8-23,11.8c-12,0-20-8-20-24.4c0-16.9,6.4-33.3,16.2-43.4c8.2-8.3,18.2-12.4,30.4-12.4c8.8,0,17.7,1.8,23.8,5.7
			C1187.3,160.9,1185.2,168.7,1184.1,174.2z M1162.9,164.1c-6.8,0-11.6,1.5-17.6,8.5c-6.8,8.2-10,23-10,33.7
			c0,8.3,2.7,11.5,8.3,11.5c7,0,14.7-7,18.2-14.7l8.2-37.5C1168.5,164.7,1165.5,164.1,1162.9,164.1z"/>
		<path class="st5" d="M1264.8,174.5l-11.6,54.8h-16.5l10.7-50.7c0.8-3.3,1.1-5.8,1.1-7.4c0-4.4-2-6.1-6.1-6.1
			c-5.4,0-13,3.8-21,14.2l-10.6,49.9h-16.3l11.2-53c1.8-8.9,2-14.1,0.3-19.7l15.4-6.4c1.5,3.5,2.4,9.1,1.4,14.4
			c7.3-8.8,16.9-13.6,27.5-13.6c9.5,0,15.3,5.9,15.3,15.1C1265.5,168.7,1265.4,171.9,1264.8,174.5z"/>
		<path class="st5" d="M1309.8,144.4l-18.2,84.9H1275l18-84.6c2.1-9.7,2.4-17.3,1.2-21.9l17.3-5.8
			C1312.9,121.2,1312.7,130.9,1309.8,144.4z M1318.5,186l23,42.2l-18.6,2.1l-21.3-44.8l31.6-34.2l17.9,3L1318.5,186z"/>
	</g>
</g>
</svg>
